…
original_books <- austen_books() 

original_books
```

```
# A tibble: 73,422 x 2
   text                  book               
 * <chr>                 <fct>              
 1 SENSE AND SENSIBILITY Sense & Sensibility
 2 ""                    Sense & Sensibility
 3 by Jane Austen        Sense & Sensibility
 4 ""                    Sense & Sensibility
 5 (1811)                Sense & Sensibility
 6 ""                    Sense & Sensibility
 7 ""                    Sense & Sensibility
 8 ""                    Sense & Sensibility
 9 ""                    Sense & Sensibility
10 CHAPTER 1             Sense & Sensibility
# ... with 73,412 more rows
```

***


```r
original_books %>%
  unnest_tokens(word, text) -> tidy_books

tidy_books
```

```
# A tibble: 725,055 x 2
   book                word       
   <fct>               <chr>      
 1 Sense & Sensibility sense      
 2 Sense & Sensibility and        
 3 Sense & Sensibility sensibility
 4 Sense & Sensibility by         
 5 Sense & Sensibility jane       
 6 Sense & Sensibility austen     
 7 Sense & Sensibility 1811       
 8 Sense & Sensibility chapter    
 9 Sense & Sensibility 1          
10 Sense & Sensibility the        
# ... with 725,045 more rows
```
…
A not so helpful word count
=====


```r
tidy_books %>%
        count(word, sort = TRUE)
```

```
# A tibble: 14,520 x 2
   word      n
   <chr> <int>
 1 the   26351
 2 to    24044
 3 and   22515
 4 of    21178
 5 a     13408
 6 her   13055
 7 i     12006
 8 in    11217
 9 was   11204
10 it    10234
# ... with 14,510 more rows
```
…
***



```r
tidy_books %>%
        count(word, sort = TRUE)
```

```
# A tibble: 13,914 x 2
   word       n
   <chr>  <int>
 1 miss    1855
 2 time    1337
 3 fanny    862
 4 dear     822
 5 lady     817
 6 sir      806
 7 day      797
 8 emma     787
 9 sister   727
10 house    699
# ... with 13,904 more rows
```

Super-short sentiment analysis
====

* The tidytext package provides three sentiment lexicons
* Example using the bing dictionary



```r
get_sentiments()
```

```
# A tibble: 2,477 x 2
   word       value
   <chr>      <dbl>
 1 abandon       -2
 2 abandoned     -2
 3 abandons      -2
 4 abducted      -2
 5 abduction     -2
 6 abductions    -2
 7 abhor         -3
 8 abhorred      -3
 9 abhorrent     -3
10 abhors        -3
# ... with 2,467 more rows
```

```r
get_sentiments("bing") -> bing

bing
```

```
# A tibble: 6,786 x 2
   word        sentiment
   <chr>       <chr>    
 1 2-faces     negative 
 2 abnormal    negative 
 3 abolish     negative 
 4 abominable  negative 
 5 abominably  negative 
 6 abominate   negative 
 7 abomination negative 
 8 abort       negative 
 9 aborted     negative 
10 aborts      negative 
# ... with 6,776 more rows
```
…
***


```r
pride_prejudice_words <- tidy_books %>%
        filter(book == "Pride & Prejudice")

word_cooccurences <- pride_prejudice_words %>%
        pairwise_count(word, linenumber, sort = TRUE)

word_cooccurences
```

```
# A tibble: 101,100 x 3
   item1     item2         n
   <chr>     <chr>     <dbl>
 1 catherine lady         87
 2 lady      catherine    87
 3 miss      bingley      68
 4 bingley   miss         68
 5 miss      bennet       65
 6 bennet    miss         65
 7 miss      darcy        46
 8 darcy     miss         46
 9 william   sir          35
10 sir       william      35
# ... with 101,090 more rows
```

```r
word_cooccurences %>%
  filter(item1 == "darcy")
```

```
# A tibble: 750 x 3
   item1 item2         n
   <chr> <chr>     <dbl>
 1 darcy miss         46
 2 darcy elizabeth    23
 3 darcy bingley      15
 4 darcy looked        9
 5 darcy replied       8
 6 darcy love          8
 7 darcy friend        8
 8 darcy pemberley     8
 9 darcy cried         7
10 darcy eyes          7
# ... with 740 more rows
```
…
